ACF00#Tengo un título de técnico superior de formación profesional y deseo acceder a la Universidad ¿Tengo que realizar alguna prueba?#Si estás en posesión de un título de técnico superior de formación profesional, técnico superior de artes plásticas y diseño, o técnico deportivo superior, puedes acceder a las enseñanzas universitarias oficiales de Grado sin necesidad de prueba. #ACF
ACF04#¿Cómo calculo mi nota de admisión?#Nota de admisión = NMC + a x TO1 + b x TO2  NMC = nota media del Ciclo Formativo  TO1 y TO2 = calificaciones de un máximo de dos ejercicios superados (nota igual o mayor a 5) de la fase de admisión, que proporcionen una mejor nota de admisión una vez aplicada la fórmula.  a y b = parámetros de ponderación de los ejercicios de la fase de admisión. #ACF
ACF01#¿Los que procedemos de Formación Profesional  tenemos un cupo de reserva de plazas para acceder a la Universidad?#No, los estudiantes procedentes de Formación Profesional acceden por el cupo general junto con estudiantes de bachillerato/EBAU y estudiantes procedentes de sistemas educativos extranjeros. La nota de acceso a la universidad será la nota media del expediente obtenido en el ciclo formativo cursado. #ACF
ACF02#¿Mi título de técnico superior de Formación Profesional me da acceso a cualquier titulación universitaria?#Sí, independientemente de la familia profesional en la que esté vinculado tu Ciclo Formativo, podrás acceder a cualquier titulación universitaria encuadrada en cualquier rama de conocimiento con el único limitante de tu nota de acceso. #ACF
ACF03#¿Si deseo acceder a una Titulación cuya demanda es superior a la oferta, puedo mejorar mi nota de admisión?#Sí. Podrás presentarte a la fase de admisión de la EBAU para mejorar tu nota de admisión, pudiendo realizar hasta un máximo de cuatro ejercicios, cada uno relacionado con un tema del temario establecido para el currículo de las materias de modalidad de segundo de bachillerato. #ACF
AV00#Soy estudiante extranjero y deseo ampliar mi formación en estudios oficiales en esa Universidad de la carrera que estoy realizando en mi país/universidad, ¿Qué debo hacer?#Puedes acogerte a la modalidad de estudiante visitante siempre que acredites un nivel de estudios que permita el acceso a la Universidad y un conocimiento del idioma español que no impida el correcto seguimiento de la enseñanza. No será posible matricularse del primer curso completo de una Titulación. #ALVIST
AV01#¿Qué trámites debo realizar para matricularme como estudiante visitante?#"Tendrás que dirigir una solicitud de admisión en español al Decano o Director del Centro donde se impartan los estudios que quieres realizar. La solicitud de admisión podrás realizarla en cualquier momento, durante los plazos de matrícula establecidos por la Universidad para cada curso académico. Para consultar la documentación a adjuntar con la solicitud diríjase al apartado ""Alumnos visitantes"" en las FAQS de la UEX. "#ALVIST
AV02#¿Qué efectos académicos tienen los estudios realizados mediante esta modalidad?#Una vez finalizado el curso, los estudiantes podrán solicitar en la Secretaría del Centro un “Certificado de Aprovechamiento” con expresión de la calificación obtenida, si se han examinado, o un “Certificado de Asistencia” en caso contrario. Estos estudios carecen de efectos académicos y no conducen a la obtención de titulación universitaria de carácter oficial, ni son homologables directamente a éstos. No obstante la matrícula de estudiantes visitantes podrá tener reconocimiento académico oficial en la Universidad de origen del estudiante. #ALVIST
EBAU00#¿Qué es la Evaluación de Bachillerato para el Acceso a la Universidad (EBAU)?#Es la prueba que deben superar los estudiantes que hayan obtenido el título de Bachiller para acceder a la Universidad. #EBAU
EBAU01#¿Es obligatoria?#Sí, tienen que realizarla todos los estudiantes que finalicen Bachillerato y quieran acceder a la Universalidad por esta vía. #EBAU
EBAU02#¿Dónde se solicita?#En la Secretaría del centro educativo donde cursa estudios de Bachillerato en los plazos que se establezcan al efecto. #EBAU
EBAU03#En la solicitud, ¿qué debe consignar?#El estudiante indicará en la solicitud de inscripción: la modalidad de Bachillerato elegida para realizar la prueba, la lengua extranjera cursada de la que desee examinarse obligatoriamente y, en su caso, las materias de las que voluntariamente solicita ser evaluado. #EBAU
EBAU04#¿Cómo se estructura la EBAU?#Se estructura en dos fases, fase de acceso, de carácter obligatorio y fase de admisión, de carácter voluntario y que sirve para subir nota. #EBAU
EBAU05#¿En qué consiste el examen de la fase de acceso?#En la fase de acceso, el examen versará sobre los contenidos de las materias generales del bloque de asignaturas troncales de segundo curso de bachillerato de la modalidad elegida para la prueba, que son: - Lengua Castellana y Literatura II. - Historia de España. - Primera Lengua Extranjera II. - Fundamentos del Arte II, Latín II, Matemáticas Aplicadas a las CCSS II o Matemáticas II. #EBAU
EBAU06#¿Es necesario haber cursado las materias de la fase de acceso?#Sí, excepto la materia de modalidad elegida que NO es necesario haberla cursado. #EBAU
EBAU07#¿Puede examinarse de la Segunda Lengua Extranjera?#Sí, a los efectos de la evaluación de las competencias en lengua extranjera, la materia Segunda Lengua Extranjera II cursada por el alumno tendrá la misma consideración que la Primera Lengua Extranjera II en esta fase de la prueba. #EBAU
EBAU08#¿Cuál es la calificación mínima para superar la EBAU?#Para superar la EBAU es necesario obtener, como mínimo, un 4 en la fase de acceso, siempre que, cuando se sume el 60% de la Nota Media de Bachillerato y el 40% de la fase de acceso, el resultado final sea un 5. #EBAU
EBAU09#¿De qué materias hay que examinarse en la fase de admisión?#Podrá presentarse a aquellas materias troncales de opción de 2º de Bachillerato que estén relacionadas con el título de Grado al que quiera acceder (no siendo necesario haberlas cursado previamente). Estas materias, se ponderarán con 0,1 o 0,2 en función de la relación que tengan con los distintos grados solicitados. #EBAU
EBAU10#¿De cuántas materias puede examinarse en la fase de admisión?#La normativa contempla que el estudiante puede examinarse voluntariamente de hasta cuatro materias de opción del bloque de las asignaturas troncales. La materia obligatoria troncal de modalidad de la fase de acceso, además de formar parte de la nota media de dicha fase, ponderará, en su caso, también para la fase de admisión. #EBAU
EBAU11#¿Cómo se calcula la nota de admisión?#La forma de calcular la nota será la siguiente: Nota de admisión = 0,6 x NMB + 0,4 x NMFA+ a*TO1 + b*TO2, siendo NMB = Nota media de bachillerato NMFA = Nota media de la fase de acceso (media aritmética de los 4 ejercicios) TO1 y TO2 = calificaciones de las materias objeto de ponderación que resulten más ventajosas para el alumnado, tras la aplicación (a y b) de la tabla de ponderaciones aprobada por la UEX. #EBAU
EBAU12#¿Las ponderaciones son iguales en todas las Universidades?#No, cada universidad puede dar una ponderación distinta a las diferentes materias en función del grado con el que se vinculen por lo que se debe tener en cuenta que la nota final de admisión puede ser distinta dependiendo de la universidad donde se solicite plaza y las titulaciones a las que se opte. #EBAU
EBAU13#¿Cuál es la validez de cada una de las fases de la EBAU?#La fase de acceso tiene validez indefinida. La validez de la fase de admisión es la de los dos cursos académicos siguientes al de la superación de la prueba. #EBAU
EBAU14#¿Puede examinarse en la fase de admisión de materias asociadas a diferentes ramas de conocimiento?#La normativa establece que puede examinarse de “cualquiera” pero después, en la fase de preinscripción, sólo se le tendrán en cuenta aquellas materias que estén relacionadas con el título de Grado al que se quiera acceder. En el cálculo de la nota de admisión, se escogerán las dos calificaciones más ventajosas, una vez ponderadas con los parámetros que establezca la universidad, en función del grado al que desee acceder. #EBAU
EBAU15#¿Cómo influye la modalidad de Bachillerato cursada a la hora de acceder a la universidad?#La modalidad de Bachillerato que se haya cursado no tiene ninguna influencia a la hora de acceder a la Universidad de Extremadura. El orden de prelación en la adjudicación de plazas vendrá dado, por la nota de admisión obtenida (en convocatoria ordinaria) independientemente de la modalidad de Bachillerato cursada. #EBAU
EBAU16#¿Puede presentarse a subir la nota de la EBAU? ¿Qué ocurre si obtiene menor calificación?#Podrá presentarte en sucesivas convocatorias para subir la nota obtenida y podrá optar por tres situaciones: Presentarse a toda la prueba completa, sólo a la fase de acceso (a todas las materias que integran la misma en la modalidad elegida), o sólo a alguna/todas las materias de la fase de admisión, sean las mismas o diferentes a las que realizó en la anterior convocatoria. Si obtiene menor calificación en sucesivas convocatorias, se le mantendría la que más le beneficie. Hay que tener en cuenta que la fase de acceso funciona en bloque (media aritmética de los cuatro exámenes) y las asignaturas de la fase de admisión son independientes. #EBAU
EBAU17#¿Puedo reclamar la nota obtenida en la EBAU?#"El alumno puede solicitar, en el plazo de tres días hábiles, la revisión de la calificación obtenida en una o varias de las pruebas que componen la EBAU. Dichos exámenes serán nuevamente corregidos por un especialista distinto del que realizó la primera corrección. La nota resultante será la media aritmética de las calificaciones obtenidas en las dos correcciones. Para ampliar la información sobre posteriores revisiones, o errores, diríjase al apartado ""EBAU"" de las FAQS de la UEX. "#EBAU
EBAU18#¿Puede presentarse a subir nota si tengo ya la PAU/EBAU superada en años anteriores?#Sí, tendrás que decidir si hacer la prueba completa, sólo a la fase de acceso, obteniendo una calificación completamente nueva o presentarte sólo a la fase de admisión. En este último caso, la nota de admisión se calcularía: Nota de admisión = CDA + a*TO1 + b*TO2 (CDA: Calificación definitiva de la prueba de acceso anterior) TO1 y TO2 = calificaciones de las materias objeto de ponderación que resulten más ventajosas para el alumnado, tras la aplicación de la tabla de ponderaciones(a y b) aprobada por la UEX. #EBAU
M25PAU00#¿Qué es la Prueba de Acceso a la Universidad para mayores de 25 años? ¿A quién va dirigida?#Para acceder a la universidad por esta vía, el solicitante debe haber cumplido o cumplir los 25 años de edad en el año natural en el que se celebre la prueba y no disponer de ningún otro tipo de estudios que le permitan el acceso a la universidad. #M25PAU
M25PAU01#¿Cómo es la prueba? ¿En qué consiste?#Se estructurará en dos fases, una general y otra específica. La fase general comprenderá un comentario de texto, un ejercicio de lengua castellana y otro de lengua extranjera (alemán, francés, inglés, italiano y portugués). La fase específica se estructurará en cinco opciones vinculadas con las cinco ramas de conocimiento: (A)Artes y Humanidades;(B)Ciencias;(C)Ciencias de la Salud;(D)Ciencias Sociales y Jurídicas;(E)Ingeniería y Arquitectura Esta parte consistirá en el desarrollo por escrito de tres cuestiones teóricas o prácticas de acuerdo con el temario de la convocatoria. El candidato podrá realizar la fase específica en la opción/es de su elección y tendrá preferencia en la admisión en la Universidad/es en las que haya realizado la prueba de acceso y en la rama/s de conocimiento vinculadas a las opciones escogidas en la fase específica. #M25PAU
M25PAU02#¿Cómo se califican los distintos ejercicios?#Cada ejercicio de la fase general se calificará de 0 a 10 puntos, la calificación de la fase general será resultado de la media ponderada del 30% de la nota del primer ejercicio (comentario de texto), el 40% de la nota del segundo ejercicio (lengua castellana) y del 30% de la nota del tercer ejercicio (lengua extranjera). La fase específica se calificará de 0 a 10 puntos.  La calificación final vendrá determinada por la media aritmética de las calificaciones obtenidas en la fase general y la fase específica, calificada de 0 a 10 y expresada con dos cifras decimales. El candidato habrá superado la prueba de acceso cuando obtenga un mínimo de 5 puntos en la calificación final, y un mínimo de 4 puntos tanto en la fase general como en la fase específica. #M25PAU
M25PAU03#¿A qué titulaciones se puede acceder por esta vía?#A través de la vía de acceso para mayores de 25 años se puede acceder a cualquier titulación universitaria pero tendrán preferencia a efectos de ingreso, aquellos que hayan elegido la opción de la fase específica vinculada a la titulación universitaria de su elección. #M25PAU
M25PAU04#¿Cuándo  se celebran las pruebas de acceso para mayores de 25 años?#Se realizará una convocatoria anual para cada una de las ramas en las que oferten enseñanzas. En la UEx, la convocatoria tiene lugar durante la primera quincena del mes de febrero y los exámenes se celebrarán durante la primera quincena del mes de mayo. #M25PAU
M25PAU05#Si no estoy de acuerdo con los resultados ¿puedo reclamar?#Sí. Tras la publicación de las calificaciones los candidatos podrán presentar reclamación mediante escrito razonado dirigido al Rector de la Universidad en el plazo de cinco días hábiles desde su exposición. #M25PAU
M25PAU06#¿Puedo presentarme a los procesos de selección en la Universidad de Extremadura si he superado las pruebas de acceso para mayores de veinticinco años en otra universidad?#Aunque la normativa especifica que, a efectos de ingreso, corresponderá la Universidad o Universidades en las que se hayan superado las pruebas, podrás realizar la preinscripción en la Universidad de Extremadura, pero tendrán preferencia los que superaron las pruebas en ésta. #M25PAU
M25PAU07#¿Si soy extranjero puedo presentarme a las pruebas de acceso a la universidad para mayores de veinticinco años?#Sí, siempre que hayas cumplido veinticinco años, o los cumplas antes del 1 de octubre del año natural en que se celebren las pruebas y no poseas estudios o título homologado en España que te den acceso a la Universidad. #M25PAU
M40PAU00#¿Qué es el Acceso a la Universidad mediante acreditación de experiencia laboral o profesional? ¿A quién va dirigida?#Podrán acceder a la Universidad de Extremadura los candidatos que puedan acreditar experiencia laboral o profesional en relación con una enseñanza, que no posean ninguna titulación académica habilitante para acceder a esta universidad por otras vías y cumplan, o hayan cumplido los cuarenta años de edad antes del día 1 de octubre del año de comienzo del curso académico. #M40PAU
M40PAU01#¿A qué titulaciones se puede acceder por esta vía?#El acceso se realizará respecto a unas enseñanzas concretas, ofertadas por la UEx.  En la memoria del plan de estudios se señalarán los criterios de acreditación y ámbito de la experiencia laboral y profesional en relación con cada una de las enseñanzas. Entre dichos criterios se incluirá, en todo caso, la realización de una entrevista personal con el candidato. #M40PAU
M40PAU02#¿Qué validez tiene la superación de esta vía de acceso?#La valoración de la experiencia laboral y profesional tendrá validez permanente para unos estudios concretos en la Universidad de Extremadura. #M40PAU
M40PAU03#Si no estoy de acuerdo con los resultados ¿puedo reclamar?#Sí. Tras la publicación de las calificaciones los candidatos podrán presentar reclamación mediante escrito razonado dirigido al Rector de la Universidad en el plazo de cinco días hábiles desde su exposición. #M40PAU
M45PAU00#¿Qué es el Acceso a la Universidad para mayores de 45 años? ¿A quién va dirigida?#Podrán presentarse a esta vía de acceso las personas mayores de 45 años de edad que no posean ninguna titulación académica habilitante para acceder a la universidad por otras vías. A través de la vía de acceso para mayores de 45 años se puede acceder a cualquier titulación universitaria. #M45PAU
M45PAU01#¿Cómo es la prueba? ¿En qué consiste?#La prueba de acceso para mayores de 45 años se estructura en dos fases. Dos ejercicios referidos a los siguientes ámbitos: comentario de texto o desarrollo de un tema de actualidad y lengua castellana, y una entrevista personal que deberá ser calificada como apto para la resolución favorable del acceso del candidato. Sólo podrán asistir a la entrevista aquellos candidatos que hayan aprobado la primera fase. La calificación final de la prueba vendrá determinada por la media aritmética de las calificaciones obtenidas en los ejercicios de la primera fase, calificada de 0 a 10 y expresada con tres cifras decimales. El candidato superará la prueba de acceso cuando obtenga un mínimo de 5 puntos en la calificación final y de apto en la entrevista personal, y un mínimo de cuatro puntos en cada ejercicio de la primera fase. #M45PAU
M45PAU02#¿Cuándo se celebran las pruebas de acceso para mayores de 45 años?#Se realizará una convocatoria anual que se hará pública durante la primera quincena del mes de febrero y los exámenes se celebrarán durante la primera quincena del mes de mayo. #M45PAU
M45PAU03#Si no estoy de acuerdo con los resultados ¿puedo reclamar?#Sí. Tras la publicación de las calificaciones los candidatos podrán presentar reclamación mediante escrito razonado dirigido al Rector de la Universidad en el plazo de cinco días hábiles desde su exposición. #M45PAU
AL00#¿Dónde puedo obtener información sobre alojamiento?#Obtendrás información en el apartado de alojamiento dentro de las FAQS de la UEX. #ALOJAMIENTO
BEC00#¿Qué Becas o Ayudas puedo solicitar al comenzar mis estudios en la Universidad?#Puedes solicitar, si reúnes los requisitos económicos y académicos, las Becas y Ayudas General al estudio del Ministerio de Educación. La Junta de Extremadura convoca ayudas complementarias. #BECA
BEC01#¿Cuándo se convocan las becas?#Las del Ministerio suele convocarse en el mes de Agosto y el plazo de finalización de la petición suele ser mediados de octubre. En cuanto a las de la Junta de Extremadura se convocan en el mes de diciembre y suelen facilitar dos meses para su solicitud. #BECA
BEC02#¿Qué requisitos tengo que tener para solicitar las becas?#Tanto el Ministerio de Educación como la Junta de Extremadura hacen constar, en ambas convocatorias, los requisitos mínimos exigidos -tanto económicos como académicos- especificando las calificaciones mínimas exigidas para poder acceder a estas becas. #BECA
BEC03#¿Dónde puedo solicitar la beca del Ministerio?#La solicitud de becas se realiza por Internet. Para ello debes acceder a la página Web. www.educacion.es y cumplimentar la petición. Cuando finalices el proceso deberás guardar e imprimir el documento que presentarás en la Secretaría de tu Centro junto con los restantes documentos de tu matrícula. #BECA
BEC04#Para mantener la condición de becario universitario, ¿tengo que aprobar un mínimo de créditos para que me concedan la beca?#Para segundos y posteriores cursos, deberás superar el porcentaje que marque la convocatoria (este requisito depende de la rama del conocimiento del Grado que estés cursando). Se exige aprobar un mínimo de asignaturas y matricularte de otro mínimo (consulta la convocatoria anual de beca del ME). #BECA
BEC05#Si no apruebo un mínimo de créditos ¿tengo que devolver la beca?#Si  no apruebas al menos el 50% de los créditos matriculados  deberás devolver las cantidades concedidas, con excepción de la beca de matrícula. En las titulaciones de la rama de Ciencias y Enseñanzas Técnicas, el porcentaje mínimo a superar será del 40% #BECA
BEC07#Mi beca hace mucho que sigue en estado “presentada”. ¿Hay algún problema?#No. Ten en cuenta que debido al elevado volumen de solicitudes presentadas, es posible que aún no se haya iniciado la tramitación de tu solicitud. #BECA
BEC09#En caso de que me denieguen la beca, ¿qué puedo hacer?#"Cuando la beca ha sido denegada por alguna de las causas previstas en la convocatoria, o si ha sido concedida por un importe diferente al que cree tener derecho, podrás presentar alegaciones. El plazo establecido para la presentación de alegaciones es de 15 días a partir de la fecha en que ha descargado la notificación de la concesión o denegación de la beca. Para más información diríjase al apartado de ""Becas"" en las FAQS de la UEX. "#BECA
BEC06#¿Cómo puedo informarme del estado de tramitación en que se encuentra mi beca y de cuándo se resolverá aproximadamente?#En la misma Web del Ministerio, a través de la Sede Electrónica en “mis trámites” puede ver en qué estado se encuentra la solicitud. Las solicitudes se resolverán en los meses comprendidos entre noviembre y abril. Aproximadamente cada 15 días se producen nuevas resoluciones y se actualiza la información en la página web. A todos los solicitantes se les notifica por correo electrónico la resolución de la solicitud. En el mensaje se informa de la dirección web de la que se puede descargar la notificación. #BECA
BEC08#¿Dónde puedo dirigirme para consultar sobre situación o entrega de documentación complementaria de la beca?#Al Negociado de Becas de la UEx. (Campus de Cáceres y Badajoz). #BECA
TA00#¿Cómo puedo calcular el importe de mi matrícula?#El importe a abonar se calculará de acuerdo al Grado de Experimentalidad al que corresponda la titulación y según se trate de primera, segunda o tercera y sucesivas matrículas.  Obtendrás el importe multiplicando el importe de cada crédito por el número de créditos de los que vayas a matricularte.  Estos precios son fijados por la Comunidad autónoma  cada curso académico y publicado en el Diario Oficial de Extremadura (DOE). #TASA
TA01#¿Cómo se abonan las tasas de matrícula?#El pago de la matrícula se realizará a través de domiciliación bancaria, gestionándose el cobro del primer recibo en los 5 días siguientes a la fecha de automatriculación. La falta de pago en la fecha de vencimiento determinará la anulación de matrícula por impago, imposibilitándose cualquier gestión en la UEx. El alumno puede optar por pago único o fraccionado. #TASA
TA02#¿Hay que abonar un importe mínimo de matrícula?#Sí, este importe mínimo también es el fijado en el Decreto de  Precios Públicos que se publica cada curso académico. #TASA
TA03#¿Es obligatorio matricularse de todos los créditos al comenzar una carrera?#El estudiante podrá matricularse de nuevo ingreso en una titulación de la Universidad de Extremadura a tiempo completo (TC) o como estudiante a tiempo parcial (TP), cursando en este último caso la mitad de créditos cada semestre.  En las titulaciones cuya demanda sea superior a la oferta, las matrículas de nuevo ingreso a tiempo parcial no podrán superar más del 5% del límite de alumnos de nuevo ingreso.  En ambos casos, el estudiante en primera matrícula deberá matricularse de todos los créditos que componen el primer curso (TC-60 cr. / TP -30 cr.), en las titulaciones de grado y de, al menos, la mitad de dichos créditos (30 ó 12) en las titulaciones de máster. #TASA
TA04#¿Qué ocurre si no pago las tasas académicas correspondientes a mi matrícula?#La falta de pago del importe total o parcial del precio público, supondrán la denegación o anulación de la matrícula, con pérdida de las cantidades correspondientes a los plazos anteriores. La Universidad podrá exigir el pago de las cantidades pendientes por matrícula de cursos académicos anteriores como condición previa a una nueva  matrícula. La Universidad podrá denegar la tramitación de cualquier documento (expedición de títulos, certificados, traslados de expediente, etc.) cuando los estudiantes tuvieren pagos pendientes de satisfacer. #TASA
TA06#¿Los créditos de asignaturas objeto de reconocimiento de créditos o adaptación realizados en otra universidad distinta a la UEx, tienen el mismo coste?#Los estudiantes que obtengan reconocimiento de créditos o adaptación de créditos por estudios realizados en cualquier Centro no perteneciente a la UEx abonarán el 25% de los precios establecidos según el Decreto de tasas públicas vigente. Si han sido han sido realizados en Centros de la Universidad de Extremadura no se devengarán precios públicos. #TASA
TA07#Si finalmente me deniegan la beca, ¿tengo que abonar mis tasas de matrícula?#Los estudiantes que al formalizar la matrícula se acojan a la exención de precios públicos por haber solicitado la beca y, posteriormente, no obtuviesen la condición de becario o fuera revocada la beca concedida, deberán abonar el importe público correspondiente a la matrícula que efectuaron sino tiene ningún otro tipo de exención. #TASA
CE00#He iniciado estudios pero no me gusta el Grado que estoy cursando ¿puedo cambiarme a otros estudios sin hacer ningún trámite?#No, para cambiar de estudios tienes que volver a realizar la preinscripción. #CE
CE01#Si obtengo plaza en una nueva titulación ¿puedo solicitar reconocimiento de los  créditos aprobados en los estudios cursados anteriormente?#Sí, deberás realizar la solicitud de reconocimiento simultáneamente a la nueva matrícula. #CE
CE02#En los nuevos estudios ¿se me tendrán en cuenta las convocatorias consumidas en el plan de estudios de donde procedo?#Sí  en el caso del cambio de estudios se te computará en el plan de destino, el número de matrículas consumidas y el número de convocatorias agotadas en las asignaturas equivalentes del plan de origen. #CE
CV00#¿Cómo puedo acceder al Campus Virtual?#El acceso al Campus Virtual se realiza consignando  la dirección de correo electrónico que te ha asignado la Universidad de Extremadura. #CAMPUS
CV01#No sé cual es el correo electrónico que tengo en la UEx ¿Cómo puedo  obtenerlo?#Tienes que acceder a la dirección http://alumnos.unex.es, introducir tu identificativo universitario y accederas a los datos de tu cuenta. Ya solo te queda indicar tu contraseña y ya lo tienes activado. #CAMPUS
CV02#Intento acceder al Campus Virtual  y tengo problemas de acceso ¿estoy incorporando mis datos correctamente?#Revisar cómo has escrito la dirección (recuerda que solo tienes que incorporar los datos que aparecen antes de la @)  Corregir el enlace que tienes archivado en sus marcadores.  Pulsar en el icono superior izquierdo para volver a la página principal del Campus Virtual de la UEx. #CAMPUS
CV03#A pesar de revisar todos mis datos sigo teniendo problemas para acceder ¿con quién puedo  contactar para resolver el problema?#Accede a la Web del Campus Virtual, entra en la Oficina de Ayuda y cumplimenta el formulario. También puedes contactar telefónicamente a través de los números que figuran en la misma dirección.  #CAMPUS
CV04#He accedido a mi cuenta pero observo que no figura una de las asignaturas en las que me he matriculado ¿con quién puedo contactar?#Ponte en contacto con el profesor responsable de la asignatura. Coméntalo con tus compañeros por si ellos tuvieran el mismo problema. #CAMPUS
CET00#Si he iniciado estudios universitarios en otra Universidad y quiero continuarlos en la Universidad de Extremadura ¿qué requisito tengo que reunir para continuar la misma titulación?#Tienes que haber superado un mínimo de 30 créditos en el mismo Grado que pretendes continuar en esta Universidad.  Si son estudios distintos a los que estés cursando, deberás pasar por el proceso de selección (preinscripción) por tu vía/s de acceso y una vez admitido, solicitar el reconocimiento de los créditos superados. #CONTINUACION
CET01#¿Qué plazo tengo para solicitar la continuación de estudios?#La solicitud y documentación a presentar deberás realizarla y remitirla entre el 1 y el 15 de julio anterior al inicio del curso para el que se solicita. #CONTINUACION
CET02#¿Qué documentación he de presentar para solicitar la continuación de estudios en esa universidad y a quién debo dirigirla?#Deberás dirigir una solicitud de admisión a la autoridad académica correspondiente (Decano de Facultad o Director de Escuela), adjuntando:  1) Certificación Académica Personal que refleje las materias superadas con su respectiva calificación.  2) Programas de las materias superadas, autenticados por el Centro de origen.  3) Fotocopia del Plan de Estudios cursado autenticado por el Centro de origen  4) Acreditación de la nota de acceso a la universidad.  5) Documento identificativo del solicitante (DNI/NIE/Pasaporte). #CONTINUACION
CET03#¿Cuántas plazas se ofertan?#El número de plazas no podrá suponer, en ningún caso, más del 6% del numero de plazas incluidas en la oferta anual de plazas para alumnos de nuevo ingreso.  Las Juntas de Centro podrán acordar la disminución de este porcentaje (consultar en la pagina Web del Centro durante el plazo de presentación de solicitudes) #CONTINUACION
CET04#¿Se reservan plazas para estudiantes con estudios extranjeros?#Dentro del límite máximo establecido del 6% se respetará un máximo del 3% para estudiantes procedentes de Centros Universitarios Extranjeros. #CONTINUACION
CET05#¿Cuáles son los criterios de adjudicación de plazas?#En caso de que el número de solicitudes de admisión supere el número de plazas de posible adjudicación, estas se ordenarán en función de la puntuación que resulte de aplicar la siguiente fórmula:  Puntuación= 0.7 * NA + 0.3*NE.  NA: nota de admisión obtenida por el estudiante para iniciar estudios universitarios en territorio nacional. NE: nota media del expediente académico de los estudios iniciados.  Se tendrá en cuenta el sistema utilizado por el MEC, con el fin de llevar a cabo las correspondientes equivalencias entre los distintos sistemas de calificaciones con el sistema español (nota en base 10). #CONTINUACION
CC00#¿Qué es la Compensación Curricular?#Es el procedimiento que permite finalizar los estudios a quienes, encontrándose en un momento próximo a la obtención de un título oficial de la Universidad de Extremadura, no han logrado superar una asignatura de formación básica u obligatoria. #COMPENSACION
CC01#¿Cuáles son los requisitos para solicitar la Compensación Curricular?#Tener pendiente SOLO una asignatura para la obtención del título de Grado o Master (exceptuando: TFG, TFM, prácticas externas y reconocimientos estudios de idiomas (nivel B1) o asignaturas equivalentes incluidas como tales en los planes de estudios). De los créditos ya superados, al menos el 50% tienen que haber sido realizados en la UEx. #COMPENSACION
CC02#¿Cuándo se puede solicitar la Compensación Curricular?#Dentro de los 10 días hábiles siguientes a la finalización del plazo de entrega de actas de la convocatoria oficial en la que se solicita dicha compensación. #COMPENSACION
CC03#¿Dónde se solicita la Compensación?#En la Secretaría del Centro donde esté cursando sus estudios. #COMPENSACION
CC04#¿Cómo se evalúa la Compensación curricular?#Aprobado por compensación (5,0)  No apto-no procede compensación #COMPENSACION
CC05#¿Cómo se calcula la Compensación curricular?#Se aplican las siguientes fórmulas:  Para asignaturas de hasta 6 ECTS: EC= NM*0,70 + CAP*0,30  Para asignaturas de entre 6 y 12  ECTS. EC= NM*0,65 + CAP*0,35  EC= Evaluación por compensación NM=nota media ponderada CAP= la mejor de las calificaciones obtenida en la asignatura a compensar.  Si CAP es mayor que cero y EC es igual o superior a 5, se procede a la Compensación. #COMPENSACION
CC06#¿Puedo solicitar la Compensación curricular si he matriculado durante 3 años con un resultado de 3 suspensos y dos no presentados?#No, porque es obligatorio haberse presentado a cuatro convocatorias. #COMPENSACION
CC07#Si llevo uno o varios años sin matricularme en la asignatura a compensar y ya he consumido cuatro convocatorias suspensas ¿Puedo solicitar la Compensación curricular?#Sí, siempre y cuando sea la última asignatura para la obtención del título de Grado o Máster (exceptuando: TFG, TFM, prácticas externas y reconocimientos estudios de idiomas) para lo que deberá matricular la asignatura en el curso académico en el que solicita la compensación. #COMPENSACION
CC08#Solo me queda una asignatura optativa para terminar mis estudios y he agotado la 4ª convocatoria ¿puedo solicitar la Compensación?#No, únicamente si es una asignatura de formación básica u obligatoria. #COMPENSACION
CC09#Si durante el curso actual he agotado la 4ª convocatoria en una asignatura y quiero solicitar la Compensación curricular para la misma, ¿tengo que matricularme para realizar la solicitud?#No, ya está matriculado en el curso actual y se hace mediante la rectificación del acta de la última convocatoria. #COMPENSACION
CPE00#¿Qué es un crédito?#Las asignaturas se configuran en créditos. Un crédito representa el volumen de trabajo total que un estudiante debe satisfacer para cumplir los objetivos de un plan de estudios. Ya no sólo se cuentan las horas de clases si no que mide las horas de clase, prácticas, actividades académicas, etc. En la UEx un crédito europeo (ECTS) equivale a 25 horas, y un curso académico a 60 créditos. #CREDITOS
CPE01#¿Cuántos créditos tiene una titulación?#Los planes de estudios están configurados en créditos, de acuerdo con las directrices del Gobierno (Consejo de Coordinación Universitaria). El número de créditos es variable según cada titulación. En la UEx, la mayoría de titulaciones se componen de 240 créditos distribuidos en 4 cursos académicos excepto algunas titulaciones como el Grado en Medicina con 360 créditos y 6 cursos o el Grado en Veterinaria con 300 créditos y 5 cursos académicos. #CREDITOS
CPE02#¿Cómo se distribuyen los créditos?#Se distribuyen en asignaturas de formación básica, obligatorias, y optativas. Para obtener la titulación  tienes que haber superado el total de créditos que configuran tu carrera así como el Trabajo Fin de Grado. #CREDITOS
EE00#¿Qué es la Normativa de  Evaluación?#Es el sistema de información y evaluación de los resultados de aprendizaje y  las competencias adquiridas por el estudiante. También establece el proceso de revisión de las calificaciones. #EMPLEO
EE01#¿Qué tipos de evaluación hay? ¿Hay que elegir entre los dos sistemas de evaluación?#Dos,  mediante evaluación continua o mediante una prueba final. Siempre que sea posible, se favorecerá la primera. El estudiante deberá elegir uno de los dos sistemas durante las tres primeras semanas  de cada semestre. #EMPLEO
EE02#¿De cuántas convocatorias dispone un estudiante para superar cada asignatura?#Los estudiantes cuentan con 6 convocatorias  oficiales, más una extraordinaria (que se solicita al Decano/Director del centro universitario) cuando le falte menos del 25% de los créditos para terminar la titulación. #EMPLEO
AAAAAAATA05#¿Tengo que pagar la misma cantidad para asignaturas que ya no tengan docencia? (planes a extinguir)#Las asignaturas de planes extinguidos de las que no se impartan las correspondientes enseñanzas, se abonará por cada crédito el 25% de los precios públicos de la tarifa ordinaria. #TASA
CPE03#¿Todas las titulaciones tienen Trabajo Fin de Grado?#El Trabajo Fin de Grado es obligatorio en todas las titulaciones y sirve para comprobar que el alumno ha adquirido todas las competencias asociadas al título. Se mide en créditos ECTS como el resto de asignaturas y la carga de trabajo depende de cada titulación. #CREDITOS
EE03#Existe una convocatoria excepcional en noviembre ¿qué estudiantes pueden acogerse a ella?#Aquellos que: -  Les falte para terminar la titulación el TFG o TFM y hasta un máximo de 18 ECTS.  -  Hayan cursado la asignatura en cursos anteriores  -  Presente solicitud al Decano/Director de su centro universitario. #EMPLEO
EE04#¿Cómo se solicita  participar en la convocatoria de noviembre?#Cada centro establece sus propios procedimientos y modelos normalizados. #EMPLEO
EE05#¿Cuándo se conoce el Calendario Académico y las fechas de evaluación final?#Una vez aprobadas por el Consejo de Gobierno, se publicarán, en los tablones y en la página web, con antelación mínima de un mes antes del inicio de las pruebas (excepto en la convocatoria de noviembre, que se hará con 7 días de antelación). #EMPLEO
EE06#¿Puede un estudiante solicitar  cambios de fechas en las pruebas finales de evaluación?#Sí,  siempre que existan causas de fuerza mayor, y previo acuerdo con el profesor de la asignatura. #EMPLEO
EE07PE10#¿Qué se considera motivos “de causa mayor”?#Aquellas circunstancias especiales de fuerza mayo grave, no imputables a la voluntad  del estudiante y que han supuesto un obstáculo insalvable para superar al menos una asignatura. #EMPLEO
EE08#¿Cuándo se publican las Actas de Evaluación?#En las convocatorias ordinarias 15 días naturales después del último día del período de evaluaciones,  y en la extraordinaria de noviembre se publicarán en 10 días naturales. #EMPLEO
EE09#¿Cómo puede un estudiante reclamar un examen?#La revisión de calificaciones que se realizará en dos días diferentes, transcurriendo, al menos, dos días hábiles desde la publicación de los resultados. #EMPLEO
EE10#Tras la revisión ¿puede el estudiante seguir reclamando?#Sí, puede recurrir a la dirección del Centro en los cinco días siguientes a  la publicación definitiva de las calificaciones y será revisado por la Comisión de Calidad de la titulación que decidirá, en el plazo de 10 días hábiles, la confirmación, corrección o la realización de una nueva prueba. #EMPLEO
EE11#¿A partir de qué convocatoria se puede solicitar  la evaluación mediante Tribunal?#A partir de la cuarta convocatoria agotada, el estudiante puede solicitar  ser evaluado por un Tribunal de tres miembros (no podrá figurar el profesor de la materia). #EMPLEO
EE12#¿Cuándo se solicita la evaluación mediante Tribunal?#Mediante solicitud dirigida a la dirección del  centro en los plazos habilitados:  Convocatoria de noviembre: primera quincena de octubre  Convocatoria  de enero: primera quincena de diciembre  Convocatoria de junio: primera quincena de abril  Convocatoria de julio: primera quincena de junio #EMPLEO
EE13#¿Qué puede hacer si  SOLO le queda una una asignatura para la obtención del título de Grado o Master?#Puede solicitar la Compensación Curricular. #EMPLEO
ID00#¿Tengo que acreditar conocimiento de algún idioma para finalizar el Grado?#Sí, para acceder a realizar el Trabajo de Fin de Grado tienes que acreditar haber adquirido unas competencias en idiomas. #IDIOMA
ID02#He cursado una asignatura de mi grado en inglés (u otro idioma extranjero),¿tengo así las competencias adquiridas?#Sí. Las asignaturas que se han impartido en otra lengua serán admitidas para demostrar que tienes adquiridas las competencias y destrezas necesarias. #IDIOMA
ID01#¿Cómo puedo acreditar el dominio de un idioma?#1)Mediante la superación de una o varias asignaturas del Plan de estudios en una lengua extranjera(niveles B1 y B2).  2)Mediante la participación en programas de movilidad con destino fuera de España con al menos 24 créditos ECTS en asignaturas impartidas y evaluadas en una lengua extranjera.  3)Mediante títulos propios de la UEx o actividades específicas a los que se le reconozcan la consecución de este objetivo transversal.  4)Mediante estudios oficiales externos a la UEx que acrediten haber alcanzado el nivel requerido.  5)Mediante la superación de una prueba específica que acredite el dominio de lengua extranjera exigido por la UEx. #IDIOMA
ID03#Yo he estudiado idiomas fuera de la UEx ¿me valdrían para acreditar esta competencia?#Sí, también puedes aducir que tienes las competencias y destrezas requeridas para los Grados  mediante estudios oficiales externos a la UEx. Consulta en la Secretaría de tu Centro para que puedan confirmarte la validez del titulo. Se incluyen los estudios impartidos por el ILM. #IDIOMA
ID04#¿Puedo hacer parte de la presentación del TFG en otro idioma para acreditar mi competencia en el dominio de una lengua extranjera?#No. #IDIOMA
ID05#En el caso que no tenga ningún documento acreditativo, pero posea conocimientos de idioma extranjero, ¿Puedo hacer un examen para demostrar esta competencia?#Sí, el Vicerrectorado de Estudiantes organizará exámenes con el objetivo de acreditar el dominio de lengua extranjera exigido por la UEx. También el Instituto de Lenguas Modernas (ILM) organiza cada curso este tipo de pruebas. Consulta la pagina Web de la UEx  para estar debidamente informado de estas pruebas. #IDIOMA
ID06#¿Dónde debo presentar los documentos que tengo para que me acrediten? ¿Hay algún plazo concreto?#Haz de presentarlos en  la Secretaría de tu Centro cuando realices la solicitud para la defensa del TFG. #IDIOMA
ID07#¿Qué oferta formativa en idiomas ofrece  la  UEx?#El Instituto de Lenguas Modernas ofrece una amplia oferta de estudios de idiomas en los cuatro campus y en otras localidades de la región. Consulta la página Web del ILM(Uex) donde podrás obtener información sobre esta oferta formativa y las diferentes pruebas que organizan a lo largo del curso para exámenes de IELTS, DEPLE, Cambridge, DELF/DALF,Instituto Camoes, Instituto Confucio, etc. #IDIOMA
M00#He sido admitido en la UEx  ¿cómo puedo efectuar mi matrícula?#La matrícula se realiza por Internet. Para ello deberás acceder a la página http://www.unex.es al apartado de automatrícula y, en los plazos asignados en el calendario,  cumplimentar el formulario. Recuerda que si no realizas el trámite en el plazo asignado, perderás la plaza. #MATRICULA
M01#¿Puedo realizar la matrícula por Internet si voy a solicitar reconocimiento de créditos por otros estudios?#Sí, la podrás realizar teniendo en cuenta de NO matricular las asignaturas sobre las que pretendas solicitar el reconocimiento de crédito (no procederá la devolución del importe de estas). También puedes optar por acudir a la Secretaría de tu Centro -en los plazos establecidos- y realizarla personalmente. #MATRICULA
M02#¿Todas las matrículas tienen que formalizarse por Internet?#No, los estudiantes procedentes de programas de movilidad entrantes internacionales y nacionales (ERASMUS/Programa SICUE); los procedentes de traslados de expediente y los que pretendan adaptarse a los estudios de Grados no podrán realizar la automatrícula debiendo  acudir a las Secretarías de sus Centros. #MATRICULA
M03#No he sido admitido en la primera titulación pero sí en otra de menor preferencia ¿puedo matricularme?#Sí, podrás hacer matrícula condicional en la titulación adjudicada para reservar tu plaza y seguir esperando a los posibles movimientos de las listas de espera en las siguientes adjudicaciones. En caso de que finalmente te interese esta plaza reservada, tendrás que convertir tu matrícula condicional en definitiva. #MATRICULA
M04#¿La matrícula condicional también se realiza por Internet?#Sí, debes acceder al programa y  consignar en el formulario  “matrícula condicional”  -epígrafe 169- que es el asignado a este tipo de matrícula. #MATRICULA
M05#¿Tengo que abonar algún importe de tasas por la matrícula condicional?#No, no tiene ningún coste, es una reserva de plaza que no implica ningún pago. #MATRICULA
M06#Si obtengo plaza en una titulación más preferente ¿cómo puedo anular la matrícula condicional para solicitar la definitiva?#Tienes que enviar el impreso de anulación de matrícula condicional al  correo electrónico del Centro donde hayas formulado la matrícula condicional. Una vez se anule ésta ya podrás acceder de nuevo a “automatrícula” para hacer la definitiva. #MATRICULA
M07#Ya he realizado la matrícula definitiva ¿qué tengo que hacer?#Una vez cumplimentado el formulario, imprímelo y guárdalo en tu ordenador (es tu justificante de estar matriculado en la UEx).  Este impreso, una vez firmado, es obligatorio presentarlo  en la Secretaría de tu Centro con los documentos de formalización de matrícula. #MATRICULA
M08#¿Qué documentos tengo que aportar  con la matrícula?#"Para obtener toda la información sobre los documentos que necesita visite el apartado de ""Matrícula"" dentro de las FAQS de la UEx "#MATRICULA
M09#¿Cómo abono las tasas? ¿Se puede fraccionar el pago?#Los pagos se realizan mediante domiciliación bancaria  en la cuenta que hayas consignado al formalizar tu matrícula. El pago puede ser único o fraccionado (ver las instrucciones correspondientes). #MATRICULA
M10#Si no abono algún plazo de la matrícula, ¿se anula la matricula?#Sí, la falta de abono de alguno de los plazos implica anulación automática de la matrícula. Por lo que debes estar pendiente de cumplir dichos plazos e informarte en la Secretaría de tu Centro. #MATRICULA
M11#Al iniciar mis estudios, ¿es necesario que me matricule del primer curso completo?#En el primer curso podrás realizar una matrícula completa (60 créditos) o matrícula parcial (30 créditos) que supondrá la matriculación del 50% de los créditos de dicho curso. En todo caso, si solicitas beca deberás matricularte del número mínimo de créditos que exija la convocatoria correspondiente. #MATRICULA
M12#¿Existe alguna restricción o tope máximo o mínimo de asignaturas en las que pueda un estudiante matricularse?#Sí. Un estudiante no  podrá matricularse de más de 90 créditos anuales. #MATRICULA
M13#Tengo alguna/s asignatura/s pendiente/s de cursos anteriores ¿me puedo matricular de otros cursos y dejarla/s  pendiente/s?#No podrás matricularte de créditos de primera matrícula si no te matriculas, al menos, del 50% de los créditos suspensos de tu expediente. Además, si eres solicitante de beca, tendrás que tener en cuenta las condiciones de la beca a la hora de planificar tu matriculación. #MATRICULA
NC00#¿Qué son las notas de corte?#Las notas de corte son orientativas, no suponen ningún límite ni restricción a la hora de acceder a una determinada titulación. La nota de corte es la nota de admisión del último alumno que accede a una determinada titulación. Por ejemplo: si se ofertan 120 plazas para el Grado en Biología, la nota de corte será la nota de admisión del estudiante que accediera a esa titulación en último lugar, el número 120. Si no se cubrieran todas las plazas, entonces no existiría nota de corte para esa titulación sino que se establecería de forma orientativa en un 5. #NOTAS
PE00#¿Qué es la Normativa de Progreso y Permanencia?#Son las normas que regulan las condiciones de progreso y permanencia de los estudiantes en las titulaciones oficiales de Grado y Máster de la Universidad de Extremadura. #PERMANENCIA
PE01#¿Qué significa permanencia?#El tiempo que un estudiante puede estar matriculado en la universidad cursando una misma titulación. #PERMANENCIA
PE02#¿A quién afecta la normativa?#A los estudiantes de Grado o Máster Oficial de la UEx #PERMANENCIA
PE03#Un Máster de Título Propio de la Universidad ¿está afectado por esta normativa?#No, solamente afecta a los Másteres Oficiales. #PERMANENCIA
PE04#¿Qué régimen de dedicación se contempla en los estudios de Grado y Máster oficial?#A tiempo completo y a tiempo parcial. #PERMANENCIA
PE05#¿De cuántas convocatorias dispone un estudiante para superar cada asignatura?#Los estudiantes cuentan con 6 convocatorias  oficiales, más una extraordinaria cuando le falte menos del 25% de los créditos para terminar la titulación. #PERMANENCIA
PE06#¿Tiene obligación el estudiante de matricularse de las asignaturas suspensas?#Sí. El estudiante debe matricularse, al menos, de la mitad de los créditos suspensos. En caso contrario, no podrá matricularse de créditos de primera matrícula. Esta restricción no afecta a los créditos de materias optativas. #PERMANENCIA
PE07#¿Puede un estudiante de nuevo ingreso matricularse a Tiempo Parcial (TP)?#Sí, pero en aquellas titulaciones  cuya demanda sea mayor que la oferta de plazas,  las matrículas de TP no podrán superar  más del 5% del total de alumnos de nuevo ingreso. #PERMANENCIA
PE08#¿Cuántos créditos hay que superar el primer año de universidad?#Los estudiantes de nuevo ingreso deberán superar, como mínimo,  una asignatura para poder permanecer en la titulación. #PERMANENCIA
PE09#¿Se puede continuar en la misma titulación si no se supera ninguna asignatura?#El estudiante debe solicitar, alegando circunstancias excepcionales de causa mayor, a la Comisión de Permanencia de la UEx, su continuidad n la titulación. #PERMANENCIA
PE11#¿Y si la Comisión de Permanencia emite un veredicto negativo?#El estudiante podrá solicitar una nueva admisión en otra titulación de la UEx. #PERMANENCIA
PE12#¿Hay un límite para matricular créditos?#En cada curso académico el estudiante no podrá matricular más de 90 créditos anuales. #PERMANENCIA
PRE00#¿Qué tengo que hacer para estudiar en la UEx?#Para poder participar en el proceso de admisión de la UEx es necesario realizar una  solicitud de preinscripción. En dicha solicitud puedes elegir hasta 7 titulaciones por orden de preferencia que se valorarán en el proceso de adjudicación de plazas en función de tu nota de admisión. #PREINSCRIPCION
PRE01#¿Cuándo puedo realizar la preinscripción?#Existen dos fases o plazos: la primera, de carácter ordinario, se extiende aproximadamente desde la última semana de junio hasta los primeros días de julio. La segunda, de carácter extraordinario, será aproximadamente a partir de la segunda quincena del mes de julio. #PREINSCRIPCION
PRE02#¿Se puede realizar la matrícula en la Universidad sin haber solicitado la preinscripción?#No, es imprescindible realizar una solicitud de preinscripción para iniciar estudios universitarios en la UEx.  La preinscripción se realizará preferentemente por Internet accediendo a nuestra página web. También podrías optar a realizarla en formato papel cumplimentando el impreso que podrás adquirir en los edificios del Rectorado de los campus de Badajoz y Cáceres. En este último caso no deberás duplicarla con la de internet. #PREINSCRIPCION
PRE03#Ya he realizado la preinscripción on line ¿Tengo que remitir alguna documentación a la UEx?#Si has realizado la EBAU en esta Universidad no es necesario remitir ninguna documentación.  Si accedes por bachillerato/EBAU de fuera de la comunidad, ciclos formativos o titulados universitarios,  tienes que remitir al Servicio de Acceso el resguardo de haberla realizado online y/o: Copia del DNI (en todos los casos), copia notas EBAU (EBAU de fuera de la comunidad), copia título o resguardo del mismo (ciclos formativos y titulados), certificado académico con las calificaciones de los estudios (ciclos formativos y titulados). #PREINSCRIPCION
PRE04#¿Cómo puedo hacer llegar esta  documentación al Servicio de Acceso?#"La puedes presentar en cualquier órgano o unidad administrativa de la Administración de la Comunidad Autónoma de Extremadura  y sus organismos públicos vinculados o dependientes, incluidas las Oficinas de Respuesta Personalizada y los Centros de Atención Administrativa, considerándose todas estas oficinas como oficinas de registro del órgano competente. Para consultar cuales son estas unidades administrativas consulta el apartado de ""Preinscripción"" en las FAQS de la UEx. "#PREINSCRIPCION
PRE05#Si quiero modificar esta petición ¿qué tengo que hacer?#Puedes realizar todos los cambios que desees y únicamente tendrá validez la última modificación que realices en el formulario. No obstante si en tu petición aparece  la palabra “aceptada” no podrás modificarla y  tendrás que contactar con el Servicio de Acceso para solicitar el cambio y/o modificación. #PREINSCRIPCION
PRE06#¿Cuándo sé si he resultado admitido/a en la titulación de mi preferencia?#Tendrás que consultar el resultado de tu preinscripción en la web de la UEx. Es recomendable que consultes el resultado de la petición siguiendo el calendario de Preinscripción publicado en la página del Servicio de Acceso previsto a tal efecto.  En cada fase de preinscripción (ordinaria y extraordinaria), se llevan a cabo varias adjudicaciones de plazas en las que las listas de espera se irán moviendo según las matriculaciones formalizadas en cada adjudicación. Cuando el interesado sea admitido en alguna de las adjudicaciones de plazas, deberá formalizar su matrícula en el plazo establecido. #PREINSCRIPCION
PRE08#Una vez publicada la primera lista de adjudicaciones de plazas, si observo que hay error en alguno de los datos consignados  ¿puedo reclamar?#Sí, de no estar conforme podrás realizar una reclamación a la misma, dentro del plazo establecido para ello. #PREINSCRIPCION
PRE09#He sido admitido en la primera titulación que he solicitado ¿qué tengo que hacer?#Tendrás que formalizar tu matricula definitiva por Internet siguiendo las instrucciones y en los plazos que se publiquen al efecto. #PREINSCRIPCION
PRE10#No he sido admitido en la primera titulación pero sí en otra de menor preferencia ¿puedo matricularme?#Si resultas admitido/a en una titulación distinta a la que elegiste en primer lugar, podrás hacer matrícula condicional en la titulación adjudicada para reservar tu plaza y seguir esperando a los posibles movimientos de las listas de espera en las siguientes adjudicaciones. En caso de que finalmente te interese esta plaza reservada, tendrás que convertir tu matrícula condicional en definitiva. #PREINSCRIPCION
PRE11#¿Pueden admitirme en más de una titulación en la misma adjudicación?#No, sólo se adjudica una plaza.  Si por tu nota has quedado en lista de espera y te adjudican la plaza que pusiste, por ejemplo, como tu tercera opción, aparecerás en lista de espera en las titulaciones en primer y segundo lugar, admitido en la tercera y las elegidas posteriormente quedarán retiradas por haber sido aceptado en titulaciones más preferentes. #PREINSCRIPCION
PRE12#Si me conceden una plaza en la Universidad de Extremadura, y desisto de matricularme en el plazo establecido, ¿se mantiene la reserva de esa plaza para otro momento?#No, precisamente las plazas vacantes surgen al no matricularse dentro de plazo aquellos estudiantes que tienen concedida una plaza; por tanto, en la siguiente adjudicación, éstas se asignarán por orden (según su nota de admisión) a los alumnos  que se encuentran en lista de espera. #PREINSCRIPCION
PRE13#¿Qué es el “llamamiento presencial”? ¿Dónde se celebra?#La última adjudicación de plazas se lleva a cabo en un llamamiento presencial que se celebra en el lugar y horas indicados en el calendario publicado y en el que sólo podrán participar aquellos estudiantes que se encuentren en situación de ‘lista de espera’ en la titulación en cuestión.  En esa sesión presencial, se irán adjudicando las plazas por orden de lista de espera sólo entre aquellas personas que se encuentren personalmente o representados mediante autorización expresa del interesado. En el caso de ser admitido mediante este proceso, los estudiantes deberán formalizar su matrícula en el plazo improrrogable que se les marque en el calendario. De no ser así, perderán la plaza asignada. #PREINSCRIPCION
SE00#¿Qué es la simultaneidad de estudios?#Es realizar al tiempo el estudio de dos grados, dos másteres o, en su caso, el estudio simultáneo de un grado y un máster universitarios. #SIMULTANEIDAD
SE01#¿A qué tipos de simultaneidad puedo acogerme en la Universidad de Extremadura?#a) Libre simultaneidad: estudiar un segundo título en la UEx una vez comenzado el primero.  b) Programas de simultaneidad de títulos:  1) Programas de títulos de la UEx, ofertados como PCEO (Plan Conjunto de Enseñanza Oficial).  2) Programas de títulos de otras universidades mediante convenios de reconocimiento y movilidad #SIMULTANEIDAD
SE02#¿Qué requisitos se me exige para realizar libre simultaneidad de estudios?#Tener aprobados, al menos, el 25% de los créditos de la titulación que cursas. Que existan plazas libres de nuevo ingreso en la nueva titulación. Acreditar que puedes asistir a las actividades presenciales de los estudios de ambas titulaciones. No matricularte de más de 84 créditos anuales entre ambas titulaciones. #SIMULTANEIDAD
SE03#¿Qué procedimientos he de seguir para  acceder a los programas de simultaneidad en la UEx?#Si comienzas desde primer curso, solicitarás plaza en el programa PCEO mediante preinscripción.  En caso de comenzar el programa de simultaneidad en segundo curso o posteriores, solicitarás la simultaneidad en el momento de la matrícula al Rector y, se entiende concedida al obtener plaza cuando se publiquen las adjudicaciones en el proceso de preinscripción. #SIMULTANEIDAD
SE04#Si estoy matriculado en un  Grado y pretendo simultanear con otros estudios oficiales ¿se me computarán en el nuevo plan las convocatorias que he utilizado en los estudios de procedencia?#Sí, se te computarán, en el plan de de estudios de los estudios que vayas a simultanear,  el número de matrículas consumidas y el número de convocatorias agotadas en las asignaturas equivalentes del plan de origen. Para la determinación de dichas asignaturas equivalentes, se aplicará el cuadro de reconocimientos automáticos entre dos planes de estudios aprobado por la Universidad de Extremadura. #SIMULTANEIDAD
TFG00#¿Es obligatorio realizar el Trabajo  Fin de Grado?#Los estudios de Grados finalizan con la defensa pública de  un trabajo de fin de Grado. Éste  tendrá entre 6 y 30 créditos y supone la realización por parte del estudiante de un trabajo original, bajo la orientación de un tutor/es, en el que se apliquen y desarrollen los conocimientos y capacidades adquiridos, demostrando que ha alcanzado las competencias previstas en el plan de estudios deberá realizarse en la fase final del plan de estudios y estar orientado a la evaluación de competencias asociadas al título. #TFG
TFG01#¿Qué requisitos hay que cumplir para acceder a este trabajo?#Las condiciones para ser evaluado, en cuanto a la obligación de haber superado las evaluaciones previstas en las restantes materias del plan de estudios, se ajustarán a lo reflejado en la memoria del título.  Para su defensa es imprescindible haber aprobado todas las asignaturas del plan de estudios. #TFG
TFG02#¿Tengo que matricularme del trabajo?#Sí, tienes que matricularte en los periodos oficiales de matrícula, ya sea el ordinario o el de ampliación. Recuerda que tienes que cumplir las condiciones especificas del título, si las hubiera.  La matricula te dará derecho a presentarte a dos convocatorias oficiales, bien sean del mismo curso académico en que formalizaste la matrícula o de cursos sucesivos. Una vez agotadas estas dos convocatorias tendrás  que realizar una nueva matrícula en las mismas condiciones que la anterior. A estos efectos se mantendrá activa la convocatoria de septiembre. #TFG
TFG03#¿Cómo puedo obtener información sobre los temas  del Trabajo Fin de Grado?#El Centro hará pública la oferta de TFG indicando, al menos, título, tema, tutor/es y Departamento responsable para cada trabajo y establecerá el procedimiento asignación de los mismos a los estudiantes.  El listado provisional y el definitivo(tras reclamaciones) con la asignación de tutores y temas a los estudiantes se publicará en la página web Centro y los medios habilitados al efecto. Ante dicha asignación, los estudiantes podrán formular reclamación motivada ante el Centro de acuerdo con el procedimiento establecido al efecto.  Cuando, por circunstancias sobrevenidas, el tutor cause baja, el Departamento arbitrará las medidas oportunas para su sustitución. #TFG
TFG04#Para defender el trabajo ¿tengo que presentar alguna solicitud?#Las solicitudes para la defensa del TFG serán registradas en las Secretarías de los Centros dentro de los plazos que se habiliten para ello, según modelo normalizado por cada Centro. Dichas solicitudes deberán ser acompañadas necesariamente de la autorización del tutor del trabajo. Asimismo, se incluirá una  copia digital del TFG y de los documentos que acrediten el dominio de las Tecnologías de la Información y la Comunicación (TIC) y el conocimiento de un idioma moderno, como competencias #TFG
EPPP00#¿Qué tipo de exenciones existen para resultar exento de pagar mis tasas académicas?#"Existen varias situaciones en las que el estudiante puede estar exento del pago de las tasas académicas, siempre y cuando cumpla los requisitos establecidos por el correspondiente Decreto por el que se fijan los precios públicos de enseñanzas conducentes a la obtención de títulos oficiales en la Universidad de Extremadura para el curso en cuestión.  Las situaciones contempladas en este Decreto puede verlas en el apartado ""Exenciones pago precios públicos"" en las FAQS de a UEx. "#EPPP
BECA#Información sobre las becas#Sobre las becas puedes preguntarme qué becas puedes solicitar, cuándo y dónde, etc#BECA
MATRICULA#Información sobre la matrícula#Sobre la matrícula puedes preguntarme cómo puedes hacerla, dónde, información sobre la matrícula condicional, etc#MATRICULA
ALOJAMIENTO#Información sobre alojamiento#Para obtener toda la información sobre el alojamiento visita el apartado de “Alojamiento” dentro de las FAQS de la UEx #ALOJAMIENTO
TASAS#Información sobre las tasas#Sobre las tasas puedes preguntarme cómo se paga la matrícula, qué pasa si no pagas las tasas, qué pasa si te deniegan la beca, etc#TASA
ACCESOUNI#"Información sobre ""Acceso a la Universidad"""#Puedes preguntarme sobre cualquier acceso a la universidad: EBAU, mayores de 25/40/45 años o ciclos formativos#ACCESOUNI
COMPENSACION#Información sobre la compensación curricular#Para obtener toda la información sobre la compensación curricular visita el apartado de “Compensación Curricular” dentro de las FAQS de la UEx #COMPENSACION
CVIRTUAL#Información sobre el campus virtual#Para obtener toda la información sobre el campus virtual visita el apartado de “Campus Virtual” dentro de las FAQS de la UEx #CAMPUS
IDIOMAS#Información sobre los idiomas#Para obtener toda la información sobre los idiomas visita el apartado de “Idiomas” dentro de las FAQS de la UEx #IDIOMA
TFG#Información sobre el Trabajo de Fin de Grado#Para obtener toda la información sobre el TFG visita el apartado de “TFG” dentro de las FAQS de la UEx #TFG
PREINSCRIPCION#Información sobre la preinscripción#Para obtener toda la información sobre la preinscripción visita el apartado de “Preinscripción” dentro de las FAQS de la UEx #PREINSCRIPCION
EMPLEO#Información sobre empleo#Para obtener toda la información sobre empleo visita el apartado de “Empleo” dentro de las FAQS de la UEx #EMPLEO
COMOES###DEPENDIENTE
CUANDOSECELEBRAN###DEPENDIENTE
RECLAMAR###DEPENDIENTE
AQUETITULACIONES###DEPENDIENTE
CALCULARNOTA###DEPENDIENTE
PLAZOS###DEPENDIENTE
REQUISITOS###DEPENDIENTE
DONDESOLICITAR###DEPENDIENTE
DOCUMENTACION###DEPENDIENTE
CRITERIOS###DEPENDIENTE
M14#Plazos matrícula#La matrícula se realiza aproximadamente en la segunda quincena de julio.#MATRICULA
NO##Vale, muchas gracias. No dude en contactar conmigo para cualquier otra duda. Un saludo.#NO
HOLA##Hola, ¿en qué puedo ayudarte?#HOLA
AYUDA##Puedo responder preguntas sobre la preinscripción, matrícula, becas, tasas, alojamiento, y otros muchos temas.#AYUDA
